…
``` r
# install.packages("remotes")
remotes
```

## Usage

To illustrate the core components of the `postmastr` workflow, we’ll use
some data included in the package on sushi resturants in the St. Louis,
Missouri region. These are “long” data - some resturants appear multiple
times. Here is a quick preview of the data:

``` r
> sushi1
# A tibble: 30 x 3
   name                            address                                           visit   
   <chr>                           <chr>                                             <chr>   
 1 BaiKu Sushi Lounge              3407 Olive St, St. Louis, Missouri 63103          3/20/18 
 2 Blue Ocean Restaurant           6335 Delmar Blvd, St. Louis, MO 63112             10/26/18
 3 Cafe Mochi                      3221 S Grand Boulevard, St. Louis, MO 63118       10/10/18
 4 Drunken Fish - Ballpark Village 601 Clark Ave #104, St. Louis, MO 63102-1719      4/28/18 
 5 Drunken Fish - Ballpark Village 601 Clark Ave Suite 104, St. Louis, MO 63102-1719 5/10/18 
 6 Drunken Fish - Ballpark Village 601 Clark Ave Suite 104, St. Louis, MO 63102-1719 8/7/18  
 7 Drunken Fish - Central West End 1 Maryland Plaza, St. Louis, MO 63108             12/2/18 
 8 I Love Mr Sushi                 9443 Olive Blvd, St. Louis, Missouri 63132        1/1/18  
 9 Kampai Sushi Bar                4949 W Pine Blvd, St. Louis, MO 63108             2/13/18 
10 Midtown Sushi & Ramen           3674 Forest Park Ave, St. Louis, MO 63108         3/4/18  
# … with 20 more rows
```
…
Once dictionaries have been developed, the `pm_parse()` function can be
used to fully prep, parse, and reconstruct address strings:

``` r
> postmastr::sushi1 %>%
+   dplyr::filter(name != "Drunken Fish - Ballpark Village") %>%
+   pm_parse(input = "full",
+            var = address,
+            output = "short",
+            dirDict = dirs,
+            suffixDict = sufs,
+            cityDict = cities,
+            stateDict = mo)
# A tibble: 27 x 4
   name                            address                                        visit    pm.address               
   <chr>                           <chr>                                          <chr>    <chr>                    
 1 BaiKu Sushi Lounge              3407 Olive St, St. Louis, Missouri 63103       3/20/18  3407 Olive St            
 2 Blue Ocean Restaurant           6335 Delmar Blvd, St. Louis, MO 63112          10/26/18 6335 Delmar Blvd         
 3 Cafe Mochi                      3221 S Grand Boulevard, St. Louis, MO 63118    10/10/18 3221 S Grand Blvd        
 4 Drunken Fish - Central West End 1 Maryland Plaza, St. Louis, MO 63108          12/2/18  1 Maryland Plz           
 5 I Love Mr Sushi                 9443 Olive Blvd, St. Louis, Missouri 63132     1/1/18   9443 Olive Blvd          
 6 Kampai Sushi Bar                4949 W Pine Blvd, St. Louis, MO 63108          2/13/18  4949 W Pine Blvd         
 7 Midtown Sushi & Ramen           3674 Forest Park Ave, St. Louis, MO 63108      3/4/18   3674 Forest Park Ave     
 8 Mizu Sushi Bar                  1013 Washington Avenue, St. Louis, MO 63101    9/12/18  1013 Washington Ave      
 9 Robata Maplewood                7260 Manchester Road, Maplewood, MO 63143      11/1/18  7260 Manchester Rd       
10 SanSai Japanese Grill Maplewood 1803 Maplewood Commons Dr, St. Louis, MO 63143 2/14/18  1803 Maplewood Commons Dr
# … with 17 more rows
```
…
