…
Street addresses can be notoriously difficult to work with. In the United States, the U.S. Postal Service has standards for their composition. There is so much variety, however, that anticipating all of the possible permutations of addresses is a significant task. When the inaccuracy of human data entry is added, the challenge of parsing addresses becomes monumental. The goal of postmastr is to provide a uniform workflow for parsing street address data that allows for sufficient flexibility.

This flexibility is provided in two ways. First, we utilize “dictionaries” for a number of the key functions that allow users to provide vectors of data to base parsing on. This enables postmastr to parse potential misspellings and colloquial terms that are hard (or impossible) to predict. Second, not all aspects of the workflow are mandatory - if street address data do not contain postal codes, states, or cities, for example, those functions can be skipped.

A Grammar of Street Addresses

Creating Dictionaries

The postmastr Workflow

To illustrate the core components of the postmastr workflow, we’ll use some data on sushi resturants in the St. Louis, Missouri region. These are “long” data - some resturants appear multiple times. Here is a quick preview of the data:

> sushi1
# A tibble: 30 x 3
   name                            address                                           visit   
   <chr>                           <chr>                                             <chr>   
 1 BaiKu Sushi Lounge              3407 Olive St, St. Louis, Missouri 63103          3/20/18 
 2 Blue Ocean Restaurant           6335 Delmar Blvd, St. Louis, MO 63112             10/26/18
 3 Cafe Mochi                      3221 S Grand Boulevard, St. Louis, MO 63118       10/10/18
 4 Drunken Fish - Ballpark Village 601 Clark Ave #104, St. Louis, MO 63102-1719      4/28/18 
 5 Drunken Fish - Ballpark Village 601 Clark Ave Suite 104, St. Louis, MO 63102-1719 5/10/18 
 6 Drunken Fish - Ballpark Village 601 Clark Ave Suite 104, St. Louis, MO 63102-1719 8/7/18  
 7 Drunken Fish - Central West End 1 Maryland Plaza, St. Louis, MO 63108             12/2/18 
 8 I Love Mr Sushi                 9443 Olive Blvd, St. Louis, Missouri 63132        1/1/18  
 9 Kampai Sushi Bar                4949 W Pine Blvd, St. Louis, MO 63108             2/13/18 
10 Midtown Sushi & Ramen           3674 Forest Park Ave, St. Louis, MO 63108         3/4/18  
# … with 20 more rows
…
Similarly, Wasabi Sushi Bar has its address fully capitalized, but the prefix direction “SOUTH” appears as a word rather than the proper “S”:

> sushi1$address[[30]]
[1] "16 SOUTH CENTRAL AVE, CLAYTON, MISSOURI 63105"

This vignette will walk through the process of addressing these issues.

Prep

There are two initial prepretory steps that must be taken with these data. First, we want to ensure that they have a unique identification number for each row (to preserve the original sort order; pm.id) as well as a unique identification number for each unique street address string (pm.uid). These can both be applied using pm.identify():

> sushi1 <- pm_identify(sushi1, var = "address")
> sushi1
# A tibble: 30 x 5
   pm.id pm.uid name                            address                                           visit   
   <int>  <int> <chr>                           <chr>                                             <chr>   
 1     1      1 BaiKu Sushi Lounge              3407 Olive St, St. Louis, Missouri 63103          3/20/18 
 2     2      2 Blue Ocean Restaurant           6335 Delmar Blvd, St. Louis, MO 63112             10/26/18
 3     3      3 Cafe Mochi                      3221 S Grand Boulevard, St. Louis, MO 63118       10/10/18
 4     4      4 Drunken Fish - Ballpark Village 601 Clark Ave #104, St. Louis, MO 63102-1719      4/28/18 
 5     5      5 Drunken Fish - Ballpark Village 601 Clark Ave Suite 104, St. Louis, MO 63102-1719 5/10/18 
 6     6      5 Drunken Fish - Ballpark Village 601 Clark Ave Suite 104, St. Louis, MO 63102-1719 8/7/18  
 7     7      6 Drunken Fish - Central West End 1 Maryland Plaza, St. Louis, MO 63108             12/2/18 
 8     8      7 I Love Mr Sushi                 9443 Olive Blvd, St. Louis, Missouri 63132        1/1/18  
 9     9      8 Kampai Sushi Bar                4949 W Pine Blvd, St. Louis, MO 63108             2/13/18 
10    10      9 Midtown Sushi & Ramen           3674 Forest Park Ave, St. Louis, MO 63108         3/4/18  
# … with 20 more rows

Notice that the Drunken Fish has three different unique identifers applied for pm.uid - two for the Ballpark Village location based on how the suite number is indicated and one for the Central West End location. Since address data are often numerous, postmastr is designed to operate on unique street address strings rather than the full original data set to imrpove efficiency. We’ll create our minimal postmastr object using pm.prep():

> sushi1_min <- pm_prep(sushi1, var = "address")
> sushi1_min
# A tibble: 24 x 2
   pm.uid pm.address                                      
    <int> <chr>                                           
 1      1 3407 Olive St St. Louis, Missouri 63103         
 2      2 6335 Delmar Blvd St. Louis, MO 63112            
 3      3 3221 S Grand Boulevard St. Louis, MO 63118      
 4      4 601 Clark Ave #104 St. Louis, MO 63102-1719     
 5      5 601 Clark Ave Suite 104 St. Louis, MO 63102-1719
 6      6 1 Maryland Plaza St. Louis, MO 63108            
 7      7 9443 Olive Blvd St. Louis, Missouri 63132       
 8      8 4949 W Pine Blvd St. Louis, MO 63108            
 9      9 3674 Forest Park Ave St. Louis, MO 63108        
10     10 1013 Washington Avenue St. Louis, MO 63101      
# … with 14 more rows
…
