Create Dictionary Objects — pm_dictionary • postmastr
…
# build state dictionary, title and upper case
pm_dictionary(type = "state", filter = "MO", case = c("title", "upper"), locale = "us")
#> # A tibble: 3 x 2
#>   state.output state.input
#>   <chr>        <chr>      
#> 1 MO           MO         
#> 2 MO           Missouri   
#> 3 MO           MISSOURI   

# build New England state dictionary, all cases
pm_dictionary(type = "state", filter = c("CT", "MA", "ME", "NH", "RI", "VT"),
    case = c("title", "upper", "lower"), locale = "us")
#> # A tibble: 30 x 2
#>    state.output state.input  
#>    <chr>        <chr>        
#>  1 CT           CT           
#>  2 CT           Connecticut  
#>  3 CT           ct           
#>  4 CT           connecticut  
#>  5 CT           CONNECTICUT  
#>  6 MA           MA           
#>  7 MA           Massachusetts
#>  8 MA           ma           
#>  9 MA           massachusetts
#> 10 MA           MASSACHUSETTS
#> # … with 20 more rows
…
# build suffix dictionary
pm_dictionary(type = "suffix", filter = c("Ave", "Rd"), locale = "us")
#> # A tibble: 27 x 3
#>    suf.type suf.input suf.output
#>    <chr>    <chr>     <chr>     
#>  1 Avenue   Av        Ave       
#>  2 Avenue   Ave       Ave       
#>  3 Avenue   Aven      Ave       
#>  4 Avenue   Avenu     Ave       
#>  5 Avenue   Avenue    Ave       
#>  6 Avenue   Avn       Ave       
#>  7 Avenue   Avnue     Ave       
#>  8 Avenue   av        Ave       
#>  9 Avenue   ave       Ave       
#> 10 Avenue   aven      Ave       
#> # … with 17 more rows
…
