Parse Street Addresses — pm_parse • postmastr
…
# add example data
df <- sushi1

# temporary code to subset unit
df <- dplyr::filter(df, name != "Drunken Fish - Ballpark Village")

# parse, full output
pm_parse(df, input = "full", address = address, output = "full",
    dir_dict = dirs, suffix_dict = sufs, city_dict = cities, state_dict = mo)
#> # A tibble: 27 x 4
#>    name              address                   visit   pm.address               
#>    <chr>             <chr>                     <chr>   <chr>                    
#>  1 BaiKu Sushi Loun… 3407 Olive St, St. Louis… 3/20/18 3407 Olive St St. Louis …
#>  2 Blue Ocean Resta… 6335 Delmar Blvd, St. Lo… 10/26/… 6335 Delmar Blvd St. Lou…
#>  3 Cafe Mochi        3221 S Grand Boulevard, … 10/10/… 3221 S Grand Blvd St. Lo…
#>  4 Drunken Fish - C… 1 Maryland Plaza, St. Lo… 12/2/18 1 Maryland Plz St. Louis…
#>  5 I Love Mr Sushi   9443 Olive Blvd, St. Lou… 1/1/18  9443 Olive Blvd St. Loui…
#>  6 Kampai Sushi Bar  4949 W Pine Blvd, St. Lo… 2/13/18 4949 W Pine Blvd St. Lou…
#>  7 Midtown Sushi & … 3674 Forest Park Ave, St… 3/4/18  3674 Forest Park Ave St.…
#>  8 Mizu Sushi Bar    1013 Washington Avenue, … 9/12/18 1013 Washington Ave St. …
#>  9 Robata Maplewood  7260 Manchester Road, Ma… 11/1/18 7260 Manchester Rd Maple…
#> 10 SanSai Japanese … 1803 Maplewood Commons D… 2/14/18 1803 Maplewood Commons D…
#> # … with 17 more rows

# parse, short output
pm_parse(df, input = "full", address = address, output = "short",
    new_address = clean_address, dir_dict = dirs, suffix_dict = sufs,
    city_dict = cities, state_dict = mo)
#> # A tibble: 27 x 4
#>    name                 address                       visit  clean_address      
#>    <chr>                <chr>                         <chr>  <chr>              
#>  1 BaiKu Sushi Lounge   3407 Olive St, St. Louis, Mi… 3/20/… 3407 Olive St      
#>  2 Blue Ocean Restaura… 6335 Delmar Blvd, St. Louis,… 10/26… 6335 Delmar Blvd   
#>  3 Cafe Mochi           3221 S Grand Boulevard, St. … 10/10… 3221 S Grand Blvd  
#>  4 Drunken Fish - Cent… 1 Maryland Plaza, St. Louis,… 12/2/… 1 Maryland Plz     
#>  5 I Love Mr Sushi      9443 Olive Blvd, St. Louis, … 1/1/18 9443 Olive Blvd    
#>  6 Kampai Sushi Bar     4949 W Pine Blvd, St. Louis,… 2/13/… 4949 W Pine Blvd   
#>  7 Midtown Sushi & Ram… 3674 Forest Park Ave, St. Lo… 3/4/18 3674 Forest Park A…
#>  8 Mizu Sushi Bar       1013 Washington Avenue, St. … 9/12/… 1013 Washington Ave
#>  9 Robata Maplewood     7260 Manchester Road, Maplew… 11/1/… 7260 Manchester Rd 
#> 10 SanSai Japanese Gri… 1803 Maplewood Commons Dr, S… 2/14/… 1803 Maplewood Com…
#> # … with 17 more rows
…
